…
## Usage

``` r
library(annotables)
```

Look at the human genes table (note the description column gets cut off
because the table becomes too wide to print nicely):

``` r
grch38
```

    ## # A tibble: 67,415 x 9
    ##    ensgene  entrez symbol  chr     start    end strand biotype description      
    ##    <chr>     <int> <chr>   <chr>   <int>  <int>  <int> <chr>   <chr>            
    ##  1 ENSG000…   7105 TSPAN6  X      1.01e8 1.01e8     -1 protei… tetraspanin 6 [S…
    ##  2 ENSG000…  64102 TNMD    X      1.01e8 1.01e8      1 protei… tenomodulin [Sou…
    ##  3 ENSG000…   8813 DPM1    20     5.09e7 5.10e7     -1 protei… dolichyl-phospha…
    ##  4 ENSG000…  57147 SCYL3   1      1.70e8 1.70e8     -1 protei… SCY1 like pseudo…
    ##  5 ENSG000…  55732 C1orf1… 1      1.70e8 1.70e8      1 protei… chromosome 1 ope…
    ##  6 ENSG000…   2268 FGR     1      2.76e7 2.76e7     -1 protei… FGR proto-oncoge…
    ##  7 ENSG000…   3075 CFH     1      1.97e8 1.97e8      1 protei… complement facto…
    ##  8 ENSG000…   2519 FUCA2   6      1.43e8 1.44e8     -1 protei… alpha-L-fucosida…
    ##  9 ENSG000…   2729 GCLC    6      5.35e7 5.36e7     -1 protei… glutamate-cystei…
    ## 10 ENSG000…   4800 NFYA    6      4.11e7 4.11e7      1 protei… nuclear transcri…
    ## # … with 67,405 more rows

Look at the human genes-to-transcripts table:

``` r
grch38_tx2gene
```

    ## # A tibble: 249,158 x 2
    ##    enstxp          ensgene        
    ##    <chr>           <chr>          
    ##  1 ENST00000373020 ENSG00000000003
    ##  2 ENST00000496771 ENSG00000000003
    ##  3 ENST00000494424 ENSG00000000003
    ##  4 ENST00000612152 ENSG00000000003
    ##  5 ENST00000614008 ENSG00000000003
    ##  6 ENST00000373031 ENSG00000000005
    ##  7 ENST00000485971 ENSG00000000005
    ##  8 ENST00000371588 ENSG00000000419
    ##  9 ENST00000466152 ENSG00000000419
    ## 10 ENST00000371582 ENSG00000000419
    ## # … with 249,148 more rows
…
